Going with the Flow? O alcance de tendências sistêmicas na diplomacia presidencial brasileira
…
worldcat <- world3 %>% 
  mutate(`daysbyyear`= cut(daysbyyear, breaks = c(1,21,34,43,80), 
labels = c("1","2","3","4"))) %>% 
  mutate(across(c(election_year, lame_duck, coffice), ~ factor(.x)))

Configuramos o banco de líderes mundiais com a variável dependente
contínua “worldcont”:

worldcont <- world3 %>%
  group_by(country, s_year) %>%
  mutate(across(c(election_year, lame_duck, coffice), ~ factor(.x)))

worldcont

## # A tibble: 182 × 10
## # Groups:   country, s_year [182]
##    country s_year election_year lame_d…¹ gdpca…² exter…³ coffice daysb…⁴ tmeet…⁵
##    <fct>   <fct>  <fct>         <fct>      <dbl>   <dbl> <fct>     <dbl>   <dbl>
##  1 Brazil  2000   0             1          3727.  -2.26  1            51       4
##  2 Brazil  2001   0             1          3142.  -2.19  1            46       5
##  3 Canada  2003   0             0         28300.   3.89  0            13       0
##  4 Canada  2005   0             0         36383.   3.95  0             2       0
##  5 Canada  2006   0             0         40504.   2.75  0            33       0
##  6 Canada  2007   0             0         44660.   2.18  0            18       0
##  7 Canada  2008   0             0         46711.   1.77  0            21       0
##  8 Canada  2009   0             0         40876.  -1.44  0            37       0
##  9 Canada  2010   0             0         47562.  -1.87  0            27       1
## 10 Canada  2011   0             0         52224.  -0.114 0            25       0
## # … with 172 more rows, 1 more variable: visitedcountries <dbl>, and
## #   abbreviated variable names ¹​lame_duck, ²​gdpcapita, ³​external_balance,
## #   ⁴​daysbyyear, ⁵​tmeeting
…
